[
   {
      "name":"Mantenimiento"
   },
   {
      "name":"Calidad"
   },
   {
      "name":"Seguridad"
   },
   {
      "name":"Almacén"
   },
   {
      "name":"Métodos"
   },
   {
      "name":"N/A"
   }
]